<?xml version="1.0" encoding="utf-8"?>
<!-- Generator: Adobe Illustrator 18.1.0, SVG Export Plug-In . SVG Version: 6.00 Build 0)  -->
<svg version="1.1" id="Layer_1" xmlns="http://www.w3.org/2000/svg" xmlns:xlink="http://www.w3.org/1999/xlink" x="0px" y="0px"
	 viewBox="0 0 171.7 65.5" enable-background="new 0 0 171.7 65.5" xml:space="preserve">
<g>
	<path fill="#FFFFFF" d="M0,49.5L0,49.5c0-8.8,6.7-16.2,16-16.2c5.4,0,8.8,1.5,12,4.2l-3.5,4.1c-2.4-2-4.8-3.3-8.7-3.3
		c-5.7,0-10.1,5-10.1,11v0.1c0,6.4,4.2,11.1,10.6,11.1c2.9,0,5.6-0.9,7.5-2.4v-5.8h-8v-4.8h13.2v13.1c-3.1,2.6-7.5,4.8-13,4.8
		C6.4,65.5,0,58.5,0,49.5z"/>
	<path fill="#FFFFFF" d="M42.3,33.6h5.1l13.7,31.3h-5.8l-3.2-7.5H37.5l-3.2,7.5h-5.6L42.3,33.6z M50.2,52.6l-5.4-12.4l-5.3,12.4
		H50.2z"/>
	<path fill="#FFFFFF" d="M62.3,33.8h5.1l16.7,21.5V33.8h5.4v31.1h-4.6L67.7,42.8v22.1h-5.4V33.8z"/>
	<path fill="#FFFFFF" d="M90.8,33.8h11.6c9.8,0,16.5,6.7,16.5,15.5v0.1c0,8.8-6.8,15.5-16.5,15.5H90.8V33.8z M96.3,38.8V60h6.1
		c6.5,0,10.8-4.4,10.8-10.5v-0.1c0-6.1-4.3-10.6-10.8-10.6H96.3z"/>
	<path fill="#FFFFFF" d="M120.5,33.8h23.1v4.9H126v8.1h15.6v4.9H126v8.4h17.8v4.9h-23.3V33.8z"/>
	<path fill="#FFFFFF" d="M145.3,33.8h13.9c3.9,0,7,1.2,9,3.1c1.6,1.7,2.6,4,2.6,6.7v0.1c0,5.1-3.1,8.2-7.4,9.4l8.4,11.8h-6.5
		l-7.6-10.8h-6.8v10.8h-5.5V33.8z M158.7,49.3c3.9,0,6.4-2,6.4-5.2V44c0-3.3-2.4-5.2-6.4-5.2h-8v10.4H158.7z"/>
</g>
<g>
	<path fill="none" d="M136.6,14.2c-0.5-0.5-1.1-1-1.7-1.3c-0.7-0.3-1.4-0.5-2.3-0.5c-1.6,0-2.9,0.6-4,1.7c-1,1.1-1.7,2.5-1.9,4.3
		h11.6c-0.1-0.8-0.3-1.6-0.6-2.3C137.4,15.3,137.1,14.7,136.6,14.2z"/>
	<path fill="none" d="M99.3,14.9c-0.6-0.7-1.3-1.2-2.2-1.6c-0.8-0.4-1.8-0.6-2.8-0.6c-1,0-2,0.2-2.8,0.6c-0.8,0.4-1.6,0.9-2.2,1.5
		c-0.6,0.6-1.1,1.4-1.4,2.3c-0.3,0.9-0.5,1.8-0.5,2.8V20c0,1,0.2,1.9,0.5,2.8c0.3,0.9,0.8,1.6,1.4,2.3c0.6,0.7,1.3,1.2,2.2,1.6
		c0.8,0.4,1.8,0.6,2.8,0.6c1.1,0,2-0.2,2.8-0.6c0.8-0.4,1.6-0.9,2.2-1.6c0.6-0.7,1.1-1.4,1.4-2.3c0.3-0.9,0.5-1.8,0.5-2.8V20
		c0-1-0.2-1.9-0.5-2.8C100.4,16.3,99.9,15.5,99.3,14.9z"/>
	<g>
		<polygon fill="#FFFFFF" points="75.5,1.3 75.5,13.8 61.1,13.8 61.1,12.9 57.4,15.9 55.8,17.2 55.8,31.3 61.1,31.3 61.1,18.7 
			75.5,18.7 75.5,31.3 80.7,31.3 80.7,1.3 		"/>
		<polygon fill="#FFFFFF" points="61.1,12.9 61.1,1.3 55.8,1.3 55.8,14.4 56.5,14.2 		"/>
	</g>
	<path fill="#FFFFFF" d="M103.1,11.7c-1.1-1.1-2.3-1.9-3.8-2.5c-1.5-0.6-3.1-0.9-4.8-0.9c-1.7,0-3.4,0.3-4.8,0.9
		c-1.5,0.6-2.7,1.5-3.8,2.6s-1.9,2.3-2.5,3.8c-0.6,1.4-0.9,3-0.9,4.6v0.1c0,1.6,0.3,3.1,0.9,4.5c0.6,1.4,1.4,2.7,2.5,3.7
		c1.1,1.1,2.3,1.9,3.8,2.5c1.5,0.6,3.1,0.9,4.8,0.9c1.7,0,3.4-0.3,4.8-0.9c1.5-0.6,2.8-1.5,3.8-2.6c1.1-1.1,1.9-2.3,2.5-3.8
		c0.6-1.4,0.9-2.9,0.9-4.5V20c0-1.6-0.3-3.2-0.9-4.6C105,14,104.2,12.7,103.1,11.7z M101.3,20.1c0,1-0.2,1.9-0.5,2.8
		c-0.3,0.9-0.8,1.6-1.4,2.3c-0.6,0.7-1.3,1.2-2.2,1.6c-0.8,0.4-1.8,0.6-2.8,0.6c-1,0-1.9-0.2-2.8-0.6c-0.8-0.4-1.6-0.9-2.2-1.6
		c-0.6-0.7-1.1-1.4-1.4-2.3C87.7,22,87.6,21,87.6,20V20c0-1,0.2-1.9,0.5-2.8c0.3-0.9,0.8-1.7,1.4-2.3c0.6-0.6,1.3-1.2,2.2-1.5
		c0.8-0.4,1.8-0.6,2.8-0.6c1,0,2,0.2,2.8,0.6c0.8,0.4,1.6,0.9,2.2,1.6c0.6,0.7,1.1,1.4,1.4,2.3C101.1,18.1,101.3,19,101.3,20.1
		L101.3,20.1z"/>
	<path fill="#FFFFFF" d="M114.8,2.4h-5.2v6.2h-2.9v4.5h2.9v11.9c0,1.3,0.2,2.3,0.5,3.2c0.3,0.8,0.8,1.5,1.4,2
		c0.6,0.5,1.3,0.9,2.1,1.1c0.8,0.2,1.7,0.3,2.6,0.3c1,0,1.8-0.1,2.6-0.3c0.7-0.2,1.4-0.5,2.1-0.9v-4.2c-1,0.5-2.1,0.8-3.2,0.8
		c-0.9,0-1.6-0.2-2.1-0.7c-0.5-0.4-0.7-1.2-0.7-2.2V13.1h6.1V8.7h-6.1V2.4z"/>
	<path fill="#FFFFFF" d="M140.7,11.8c-0.9-1.1-2-2-3.4-2.7c-1.4-0.7-2.9-1-4.7-1c-1.6,0-3.1,0.3-4.5,0.9c-1.3,0.6-2.5,1.5-3.5,2.5
		s-1.8,2.3-2.3,3.8c-0.5,1.4-0.8,3-0.8,4.6v0.1c0,1.7,0.3,3.3,0.9,4.8c0.6,1.4,1.4,2.7,2.5,3.7c1,1,2.3,1.8,3.7,2.4
		c1.4,0.6,2.9,0.9,4.6,0.9c2.1,0,3.9-0.4,5.4-1.2c1.5-0.8,2.8-1.8,3.9-3.1l-3-2.7c-0.9,0.9-1.8,1.6-2.8,2c-0.9,0.5-2.1,0.7-3.3,0.7
		c-1.7,0-3.1-0.5-4.3-1.5c-1.2-1-1.9-2.4-2.2-4.3h16.6c0-0.3,0-0.5,0.1-0.8c0-0.2,0-0.5,0-0.7c0-1.6-0.2-3.2-0.7-4.7
		C142.3,14.3,141.6,13,140.7,11.8z M126.7,18.4c0.2-1.8,0.9-3.2,1.9-4.3c1-1.1,2.4-1.7,4-1.7c0.9,0,1.6,0.2,2.3,0.5
		c0.7,0.3,1.3,0.7,1.7,1.3c0.5,0.5,0.9,1.2,1.2,1.9c0.3,0.7,0.5,1.5,0.6,2.3H126.7z"/>
	<rect x="145.4" y="0" fill="#FFFFFF" width="5.2" height="31.3"/>
	<polygon fill="#D6A778" points="56.8,15.1 55.8,15.4 43.8,18.7 36.1,0.6 36.3,20.5 6.8,27.1 36.5,26.7 31.8,51.8 42.3,28 
		53.7,34.3 46.1,23.9 55.8,15.9 	"/>
	<polygon fill="#FFFFFF" points="61.1,12.9 61.1,12.9 61.1,12.9 	"/>
</g>
</svg>
