<?xml version="1.0" encoding="utf-8"?>
<!-- Generator: Adobe Illustrator 18.1.0, SVG Export Plug-In . SVG Version: 6.00 Build 0)  -->
<svg version="1.2" baseProfile="tiny" id="Layer_1" xmlns="http://www.w3.org/2000/svg" xmlns:xlink="http://www.w3.org/1999/xlink"
	 x="0px" y="0px" viewBox="0 0 848 400" xml:space="preserve">
<path fill="#8A8C8C" d="M676.9,0.7v292c0,51.8,24.1,85.3,77.4,86.3c47.6,0.5,69.1-26.7,69.1-86.3v-53.9h24.6v40.3
	c0,88.4-33.5,120.9-94.2,120.9c-68.5,0-101.5-35.6-101.5-126.6V0.8L676.9,0.7z"/>
<g>
	<path fill="#8A8C8C" d="M195.7,0.8v272.6c0,91-33,126.6-101.5,126.6C33.5,400,0,367.5,0,279.1v-40.3h24.6v53.9
		c0,59.6,21.5,86.9,69.1,86.3c53.4-1,77.4-34.5,77.4-86.3V0.6L195.7,0.8z"/>
</g>
<path fill="#8A8C8C" d="M363.1,278.1l-34,114.6h-27.7L427.5,0.8l125.6,391.9h-27.2l-34.5-114.6l-5.2-20.9L427.5,67.7l-59.1,189.4
	L363.1,278.1z"/>
<rect x="0.1" y="238.8" fill="#8A8C8C" width="77.6" height="21.2"/>
<rect x="770.4" y="238.8" fill="#8A8C8C" width="77.6" height="21.2"/>
<rect x="393.8" y="238.8" fill="#8A8C8C" width="65" height="21.2"/>
<rect x="652.2" y="0" fill="#8A8C8C" width="77.6" height="21.2"/>
<rect x="118" y="0" fill="#8A8C8C" width="77.6" height="21.2"/>
</svg>
