<?xml version="1.0" encoding="utf-8"?>
<!-- Generator: Adobe Illustrator 18.1.0, SVG Export Plug-In . SVG Version: 6.00 Build 0)  -->
<svg version="1.1" id="Layer_1" xmlns="http://www.w3.org/2000/svg" xmlns:xlink="http://www.w3.org/1999/xlink" x="0px" y="0px"
	 viewBox="0 279.4 611.3 232.4" enable-background="new 0 279.4 611.3 232.4" xml:space="preserve">
<g>
	<path fill="#FFFFFF" d="M0,455.6L0,455.6c0-31.1,23.7-57.7,57-57.7c19.2,0,31.1,5.2,42.9,14.8l-12.6,14.8
		c-8.9-7.4-17-11.8-31.1-11.8c-20.7,0-36.3,17.8-36.3,39.2l0,0c0,22.9,14.8,39.2,37.7,39.2c10.4,0,20-3,26.6-8.1v-20.7H56.2v-17
		h47.4v46.6c-11.1,9.6-26.6,17-45.9,17C22.9,512.6,0,488.1,0,455.6z"/>
	<path fill="#FFFFFF" d="M151,399.3h17.8l48.8,111.7h-20.7l-11.1-26.6h-52.5l-11.1,26.6h-20L151,399.3z M179.1,466.7l-19.2-44.4
		l-19.2,44.4H179.1z"/>
	<path fill="#FFFFFF" d="M222,400.1h17.8l59.2,77v-77h19.2v111h-16.3l-61.4-79.2v79.2H222V400.1z"/>
	<path fill="#FFFFFF" d="M324.1,400.1h41.4c34.8,0,59.2,23.7,59.2,54.8l0,0c0,31.1-24.4,55.5-59.2,55.5h-41.4V400.1z M343.4,417.8
		v75.5h22.2c22.9,0,38.5-15.5,38.5-37l0,0c0-21.5-15.5-37.7-38.5-37.7h-22.2V417.8z"/>
	<path fill="#FFFFFF" d="M429.2,400.1h82.1v17.8h-62.9v28.9H504v17.8h-55.5v29.6h63.6v17.8h-82.9V400.1z"/>
	<path fill="#FFFFFF" d="M518,400.1h49.6c14.1,0,25.2,4.4,31.8,11.1c5.9,5.9,8.9,14.1,8.9,23.7l0,0c0,18.5-11.1,28.9-26.6,33.3
		l29.6,42.2h-22.9l-27.4-38.5h-24.4v38.5H518V400.1z M566.1,454.8c14.1,0,22.9-7.4,22.9-18.5l0,0c0-11.8-8.9-18.5-22.9-18.5H538v37
		H566.1z"/>
</g>
<g>
	<g>
		<polygon fill="#FFFFFF" points="268.6,283.9 268.6,328.3 217.6,328.3 217.6,325.3 205,336.4 199.1,340.9 199.1,391.2 217.6,391.2 
			217.6,346 268.6,346 268.6,391.2 287.9,391.2 287.9,283.9 		"/>
		<polygon fill="#FFFFFF" points="217.6,325.3 217.6,283.9 199.1,283.9 199.1,330.5 201.3,329.8 		"/>
	</g>
	<path fill="#FFFFFF" d="M367.1,320.9c-3.7-3.7-8.1-6.7-13.3-8.9s-11.1-3-17-3s-11.8,1.5-17,3.7s-9.6,5.2-13.3,8.9
		c-3.7,3.7-6.7,8.1-8.9,13.3c-2.2,5.2-3,10.4-3,16.3l0,0c0,5.9,0.7,11.1,3,16.3c2.2,5.2,5.2,9.6,8.9,13.3c3.7,3.7,8.1,6.7,13.3,8.9
		s11.1,3,17,3s11.8-1.5,17-3.7c5.2-2.2,9.6-5.2,13.3-8.9c3.7-3.7,6.7-8.1,8.9-13.3c2.2-5.2,3-10.4,3-16.3l0,0c0-5.9-0.7-11.1-3-16.3
		C374.5,329,371.5,324.6,367.1,320.9z M361.1,351.2c0,3.7-0.7,6.7-1.5,9.6c-1.5,3-3,5.9-5.2,8.1s-4.4,4.4-7.4,5.9s-6.7,2.2-10.4,2.2
		s-6.7-0.7-9.6-2.2c-3-1.5-5.9-3-7.4-5.9c-2.2-2.2-3.7-5.2-5.2-8.1c-1.5-3-1.5-6.7-1.5-10.4l0,0c0-3.7,0.7-6.7,1.5-9.6
		c1.5-3,3-5.9,5.2-8.1c2.2-2.2,4.4-4.4,7.4-5.2c3-1.5,6.7-2.2,9.6-2.2c3.7,0,6.7,0.7,9.6,2.2c3,1.5,5.9,3,7.4,5.9
		c2.2,2.2,3.7,5.2,5.2,8.1C360.4,343.8,361.1,347.5,361.1,351.2L361.1,351.2z"/>
	<path fill="#FFFFFF" d="M409.2,288.3h-18.5v22.2h-10.4v15.5h10.4v42.2c0,4.4,0.7,8.1,1.5,11.1c1.5,3,3,5.2,5.2,7.4
		c2.2,1.5,4.4,3,7.4,3.7c3,0.7,5.9,1.5,9.6,1.5c3.7,0,6.7,0,8.9-0.7c3-0.7,5.2-1.5,7.4-3v-14.8c-3.7,1.5-7.4,3-11.8,3
		c-3,0-5.9-0.7-7.4-2.2c-1.5-1.5-3-4.4-3-7.4v-40.7H430v-15.5h-21.5v-22.2H409.2z"/>
	<path fill="#FFFFFF" d="M501.7,321.6c-3-3.7-7.4-7.4-11.8-9.6c-5.2-2.2-10.4-3.7-17-3.7c-5.9,0-11.1,0.7-15.5,3
		c-4.4,2.2-8.9,5.2-12.6,8.9c-3.7,3.7-5.9,8.1-8.1,13.3c-2.2,5.2-3,10.4-3,16.3l0,0c0,5.9,0.7,11.8,3,17c2.2,5.2,5.2,9.6,8.9,13.3
		c3.7,3.7,8.1,6.7,13.3,8.9s10.4,3,16.3,3c7.4,0,14.1-1.5,19.2-4.4c5.2-3,9.6-6.7,14.1-11.1l-11.8-8.1c-3,3-6.7,5.9-9.6,7.4
		c-3.7,1.5-7.4,2.2-11.8,2.2c-5.9,0-11.1-1.5-15.5-5.2c-4.4-3.7-6.7-8.9-8.1-15.5h59.2c0-0.7,0-1.5,0-3c0-0.7,0-1.5,0-2.2
		c0-5.9-0.7-11.1-2.2-16.3C506.9,330.5,504.7,325.3,501.7,321.6z M451.4,345.3c0.7-6.7,3-11.1,6.7-15.5c3.7-3.7,8.9-5.9,14.1-5.9
		c3,0,5.9,0.7,8.1,1.5c2.2,1.5,4.4,3,5.9,4.4c1.5,2.2,3,4.4,4.4,6.7c0.7,3,1.5,5.2,2.2,8.1h-41.4V345.3z"/>
	<rect x="518" y="279.4" fill="#FFFFFF" width="18.5" height="111.7"/>
	<polygon fill="#FFFFFF" points="202,333.5 199.1,334.2 156.1,346 128.8,281.7 129.5,352 24.4,376.4 130.2,374.9 113.2,463.7 
		151,379.3 190.9,401.6 164.3,364.5 199.1,336.4 	"/>
	<path fill="#FFFFFF" d="M217.6,325.3L217.6,325.3L217.6,325.3z"/>
</g>
</svg>
